<?xml version="1.0" encoding="UTF-8" standalone="no"?>
<svg
   xmlns:dc="http://purl.org/dc/elements/1.1/"
   xmlns:cc="http://creativecommons.org/ns#"
   xmlns:rdf="http://www.w3.org/1999/02/22-rdf-syntax-ns#"
   xmlns:svg="http://www.w3.org/2000/svg"
   xmlns="http://www.w3.org/2000/svg"
   xmlns:xlink="http://www.w3.org/1999/xlink"
   xmlns:sodipodi="http://sodipodi.sourceforge.net/DTD/sodipodi-0.dtd"
   xmlns:inkscape="http://www.inkscape.org/namespaces/inkscape"
   width="1140"
   height="1140"
   version="1.1"
   id="svg4"
   sodipodi:docname="logo2.svg"
   inkscape:version="0.92.1 r15371"
   inkscape:export-filename="/home/herman/Pictures/wolbosticker/thefile.svg.png"
   inkscape:export-xdpi="97.536003"
   inkscape:export-ydpi="97.536003">
  <metadata
     id="metadata10">
    <rdf:RDF>
      <cc:Work
         rdf:about="">
        <dc:format>image/svg+xml</dc:format>
        <dc:type
           rdf:resource="http://purl.org/dc/dcmitype/StillImage" />
        <dc:title></dc:title>
      </cc:Work>
    </rdf:RDF>
  </metadata>
  <defs
     id="defs8" />
  <sodipodi:namedview
     pagecolor="#ffffff"
     bordercolor="#666666"
     borderopacity="1"
     objecttolerance="10"
     gridtolerance="10"
     guidetolerance="10"
     inkscape:pageopacity="0"
     inkscape:pageshadow="2"
     inkscape:window-width="1600"
     inkscape:window-height="845"
     id="namedview6"
     showgrid="false"
     inkscape:snap-global="true"
     inkscape:zoom="0.70710678"
     inkscape:cx="523.9841"
     inkscape:cy="816.52369"
     inkscape:window-x="0"
     inkscape:window-y="30"
     inkscape:window-maximized="1"
     inkscape:current-layer="svg4" />
  <circle
     style="fill:#000000;fill-opacity:1;stroke:none;stroke-width:6.06371069;stroke-linecap:round;stroke-linejoin:round;stroke-miterlimit:4;stroke-dasharray:none;stroke-dashoffset:0;stroke-opacity:1;paint-order:normal"
     id="path4493"
     cx="571"
     cy="571.24994"
     r="500" />
  <text
     xml:space="preserve"
     style="font-style:normal;font-weight:normal;font-size:64px;line-height:1.25;font-family:sans-serif;letter-spacing:0px;word-spacing:0px;fill:#000000;fill-opacity:1;stroke:none"
     id="text4573"><textPath
       xlink:href="#path4575"
       id="textPath4581"
       style="font-style:normal;font-variant:normal;font-weight:normal;font-stretch:normal;font-family:'Century Schoolbook L';-inkscape-font-specification:'Century Schoolbook L';letter-spacing:0.01px;word-spacing:0.01px"
       dx="20">Verwersdijk 102  -  tel: 015 212 1516  -  insta: wolbodo_delft</textPath></text>
  <path
     style="fill:none;fill-opacity:1;stroke:none;stroke-width:4.53649616;stroke-linecap:round;stroke-linejoin:round;stroke-miterlimit:4;stroke-dasharray:none;stroke-dashoffset:0;stroke-opacity:1;paint-order:normal"
     d="M 2.3359447,578.76706 A 567.73175,567.73175 0 0 0 578.7671,1137.6641 567.73175,567.73175 0 0 0 1137.6641,561.23285 567.73175,567.73175 0 0 0 561.23289,2.335891 567.73175,567.73175 0 0 0 2.3359447,578.76706 Z"
     id="path4575"
     inkscape:connector-curvature="0" />
  <path
     style="fill:#ffffff;fill-opacity:1;stroke:none;stroke-width:1.88976383;stroke-linecap:round;stroke-linejoin:round;stroke-miterlimit:4;stroke-dasharray:none;stroke-dashoffset:0;stroke-opacity:1;paint-order:normal"
     d="m 141.27662,805.7971 c -9.03518,-10.66193 -12.35891,-16.42999 -14.63282,-25.39399 -1.51456,-5.97058 -1.52509,-6.95158 -0.0796,-7.40871 0.61875,-0.19567 4.94727,-2.14288 9.61893,-4.32715 10.3743,-4.85056 14.03327,-6.10693 21.50608,-7.38447 5.42846,-0.92804 27.71362,-2.30898 30.94009,-1.91726 l 1.37767,0.16726 -2.80783,3.5 c -1.54431,1.925 -3.4801,4.66646 -4.30177,6.09213 -1.15932,2.01152 -1.90992,2.72695 -3.35105,3.19406 -8.43415,2.73371 -19.09169,11.0154 -25.05366,19.46852 -4.33678,6.14887 -6.18247,10.44842 -7.22082,16.82102 l -0.58264,3.57574 z"
     id="path4631"
     inkscape:connector-curvature="0" />
  <path
     style="fill:#ffffff;fill-opacity:1;stroke:#ffffff;stroke-width:1.88976383;stroke-linecap:round;stroke-linejoin:round;stroke-miterlimit:4;stroke-dasharray:none;stroke-dashoffset:0;stroke-opacity:1;paint-order:normal"
     d="m 204.84243,814.28168 c -10.09072,-0.95536 -14.67896,-3.80835 -17.90839,-11.13555 -1.70026,-3.85769 -2.49173,-8.60208 -2.82982,-16.96307 -0.29822,-7.3752 -0.24799,-8.04011 0.83096,-10.99925 3.30418,-9.06202 11.39763,-16.97792 29.25405,-28.61229 3.3,-2.15012 9.64119,-6.47337 14.09153,-9.60723 4.45034,-3.13386 10.86284,-7.40078 14.25,-9.48205 8.38704,-5.15347 11.06515,-7.30924 13.37214,-10.76397 2.62126,-3.92538 3.38599,-7.39066 2.69282,-12.2022 -0.57495,-3.99097 -2.69619,-9.0365 -4.88956,-11.63021 -4.11858,-4.87032 -11.33786,-4.82111 -15.66461,0.10677 -2.75784,3.14102 -2.64354,6.26012 0.45445,12.40089 2.58183,5.11764 1.7364,8.64864 -2.92132,12.20121 -4.00471,3.05449 -7.08753,3.89276 -14.38545,3.91161 -5.65024,0.0146 -6.87491,-0.134 -9.36777,-1.13661 -9.13327,-3.67331 -15.13439,-11.0295 -17.15291,-21.0261 -1.91285,-9.47324 1.22926,-19.64617 8.21082,-26.58343 3.95368,-3.9286 7.29104,-5.90966 13.3203,-7.90697 7.7155,-2.55591 13.29368,-3.31089 24.23956,-3.28074 15.15821,0.0417 25.90344,2.227 54.75,11.13446 14.04083,4.33563 18.55472,5.89995 42,14.55533 28.08118,10.36684 45.96339,14.23299 68.75,14.86382 42.60009,1.17936 91.53824,-12.34731 118.5,-32.75379 7.461,-5.64699 22.50011,-23.8371 31.65521,-35.26451 3.46398,-4.32374 14.40828,-21.29575 13.03905,-18.01872 -0.53302,1.27568 -10.71461,20.69792 -11.5365,24.20179 -0.49766,2.1216 0.11685,2.48679 -2.90026,6.71205 -9.28396,13.00158 -19.1359,22.04885 -36.5075,33.5257 -40.1986,26.55791 -86.34747,35.16961 -139.25,25.98502 -19.38644,-3.36575 -30.3193,-6.5442 -52.75,-15.33573 -18.74658,-7.34756 -26.41279,-9.82436 -42.99749,-13.8916 -28.65498,-7.02736 -36.78006,-8.41959 -45.57163,-7.80869 -11.64299,0.80903 -20.87821,5.22168 -27.35037,13.06818 -8.52011,10.32933 -9.6304,20.00231 -3.05109,26.58161 3.86187,3.86188 8.3552,5.89211 13.05712,5.89963 2.84025,0.004 3.88065,-0.20905 5,-1.02652 2.60406,-1.90178 3.19589,-3.94962 3.69812,-12.7963 0.53512,-9.42603 1.24234,-11.5385 4.63979,-13.85916 2.9893,-2.04186 5.48322,-2.70828 10.05634,-2.68725 5.37378,0.0247 9.97955,1.20825 16.01921,4.11643 6.1677,2.96983 9.20125,5.56658 11.21824,9.60294 3.22136,6.44651 1.36278,13.06069 -6.15548,21.9056 -5.34339,6.28628 -14.81846,13.73437 -31.56276,24.81063 -26.58203,17.58387 -35.61929,24.87426 -39.17828,31.60528 -6.14584,11.62343 2.80624,23.62758 17.67888,23.70623 5.57481,0.0295 9.03376,-1.07596 12.15905,-3.88586 3.08143,-2.77047 3.7903,-4.69087 3.48076,-9.42971 -0.27065,-4.14333 -1.47,-6.83039 -4.53085,-10.15102 -3.00439,-3.25937 -6.80479,-4.94454 -15.50501,-6.8752 -0.76749,-0.17032 -1.27416,-0.50591 -1.12592,-0.74576 0.14823,-0.23985 2.21445,-1.82729 4.59159,-3.52764 5.15792,-3.68942 5.67238,-3.69375 10.92978,-0.092 6.90574,4.73101 13.17628,14.18857 13.63221,20.56081 0.37678,5.26601 -1.23158,10.19065 -5.27929,16.16468 -3.63858,5.37019 -4.86775,6.36434 -12.22542,9.88786 -4.85284,2.32398 -6.53805,2.57994 -12.9743,1.97058 z"
     id="path4633"
     inkscape:connector-curvature="0"
     sodipodi:nodetypes="csccsscccscscccssscssssscsssssssscccsccssssccsccccscssscc" />
  <path
     style="fill:#ffffff;fill-opacity:1;stroke:#ffffff;stroke-width:5.34505939;stroke-linecap:round;stroke-linejoin:round;stroke-miterlimit:4;stroke-dasharray:none;stroke-dashoffset:0;stroke-opacity:1;paint-order:normal"
     d="m 995.30497,676.38752 c -7.17431,-13.46039 -27.81546,-33.98004 -41.95199,-41.70505 -0.76546,-0.41829 3.87365,-8.7574 5.3948,-9.69752 1.60354,-0.99105 10.03514,3.75926 16.69994,9.40862 5.4353,4.60719 23.35706,29.11336 28.05778,38.36621 3.6024,7.09086 3.4815,8.55993 -0.8979,10.90371 -2.3237,1.24362 -3.25772,0.31305 -7.30263,-7.27597 z"
     id="path4675"
     inkscape:connector-curvature="0" />
  <path
     style="fill:#ff0000;fill-opacity:1;stroke:none;stroke-width:7.55897093;stroke-linecap:round;stroke-linejoin:round;stroke-miterlimit:4;stroke-dasharray:none;stroke-dashoffset:0;stroke-opacity:1;paint-order:normal"
     d="m 437.93756,541.36239 c -30.06936,-1.92367 -52.92613,-6.40629 -88.62687,-17.38128 -19.58825,-6.02175 -26.23585,-9.81118 -35.60536,-20.29657 -16.98905,-19.01239 -24.01677,-34.62424 -24.03842,-53.40053 -0.0364,-31.56508 18.84658,-61.40135 58.52357,-92.47091 14.47639,-11.33591 24.20899,-16.58283 64.69602,-34.87812 20.45669,-9.24396 52.66225,-26.79035 66.23841,-36.08831 7.6181,-5.21744 20.18978,-16.502 34.32472,-30.81044 12.26714,-12.41774 25.63146,-24.66524 29.69848,-27.21667 4.06703,-2.55144 7.6323,-4.80905 7.92285,-5.01691 0.29054,-0.20786 0.13534,-1.40182 -0.34485,-2.65324 -1.90314,-4.9595 -14.78179,4.76637 -40.46881,30.56178 -27.54835,27.66457 -36.46339,34.28933 -68.7207,51.0662 -21.08675,10.9671 -51.73806,25.41763 -52.4352,24.7205 -0.23312,-0.23314 2.65068,-2.76855 6.40846,-5.63427 11.2208,-8.55708 29.90042,-28.90691 42.44027,-46.23498 15.25735,-21.08322 26.91438,-40.81233 42.44294,-71.83311 22.24187,-44.43174 37.49489,-63.19355 60.14585,-73.98176 28.2908,-13.47436 49.17503,-10.22356 98.39213,15.31554 14.38962,7.46688 34.91338,16.87971 45.60834,20.91741 l 19.44541,7.34127 -11.99785,0.92223 c -14.71522,1.1311 -43.57391,4.85819 -46.59593,6.01785 -3.15528,1.21079 -2.75065,4.7909 0.54149,4.7909 1.51735,0 5.81302,-0.62118 9.54594,-1.3804 9.82698,-1.99867 47.90309,-5.69067 58.68863,-5.69067 11.95725,0 50.80281,3.90083 59.066,5.93134 23.77252,5.84162 61.37424,34.01891 77.23508,57.87702 17.67358,26.58486 27.03654,59.55776 28.48197,100.30302 0.86076,24.26382 -0.50168,39.49896 -6.10986,68.32203 -6.20004,31.86499 -11.96853,44.37109 -28.59688,61.99802 -19.66775,20.84884 -45.75804,34.79988 -83.86701,44.84546 -21.11715,5.5665 -38.59334,8.79898 -79.72604,14.74651 -50.8117,7.34707 -48.79036,7.18028 -48.79036,4.02585 0,-2.24303 1.42079,-2.81218 8.83883,-3.54073 77.0985,-7.57207 116.41562,-16.15781 149.67673,-32.68516 24.36508,-12.10694 45.243,-28.49017 55.41969,-43.48869 6.06125,-8.93312 14.25785,-31.93623 17.16925,-48.18411 1.14858,-6.41001 2.49654,-25.33708 2.99544,-42.06016 0.76067,-25.49658 0.52472,-32.2322 -1.46145,-41.7193 -4.63673,-22.14774 -22.50262,-61.00886 -35.55796,-77.34418 -21.31568,-26.67093 -54.29289,-48.19517 -82.82316,-54.05872 -12.2011,-2.50757 -41.85125,-2.93595 -52.03198,-0.75176 -3.50017,0.75094 -12.72792,2.28086 -20.50609,3.39983 -7.77818,1.11896 -17.46635,3.04208 -21.52928,4.27358 -14.54008,4.4072 -44.95688,16.47932 -47.74989,18.95145 -1.56514,1.38534 -5.70951,3.33347 -9.20969,4.3292 -13.73192,3.90642 -26.62327,14.23818 -44.96159,36.03442 -18.28747,21.73578 -29.46265,33.42639 -42.35884,44.31252 -18.11105,15.28817 -28.46243,21.72888 -56.51889,35.16652 -46.96637,22.49457 -59.70263,29.11566 -74.26228,38.60611 -18.04557,11.76269 -29.71007,24.16235 -37.87148,40.25832 -5.38115,10.61271 -6.06456,13.11178 -6.71755,24.56417 -0.59504,10.43617 -0.17826,14.55587 2.29706,22.70532 5.76464,18.97882 21.01787,37.53538 42.70412,51.95237 29.36806,19.52385 60.3511,25.02411 124.09221,22.02948 19.19906,-0.90199 39.42973,-2.01301 44.95702,-2.46893 9.14885,-0.75465 10.11428,-0.58182 10.77065,1.92821 0.69147,2.64413 -0.44529,2.79495 -27.72731,3.67892 -34.69218,1.12405 -67.7604,0.89888 -91.55598,-0.62344 z M 508.8234,236.2376 c 5.98714,-4.22313 10.17939,-13.98179 9.4671,-22.03735 -1.4311,-16.18477 -17.73674,-16.30698 -25.76662,-0.19312 -4.89891,9.83083 -4.65372,16.8442 0.77876,22.27669 4.72034,4.72034 8.78033,4.70824 15.52076,-0.0462 z m 32.01151,-49.0349 c 12.38714,-7.25934 17.5485,-25.20788 9.82842,-34.17823 -2.91322,-3.38504 -4.43818,-3.95348 -10.38055,-3.86944 -12.22444,0.17287 -23.72624,10.63639 -25.39876,23.10597 -2.13197,15.89505 11.21302,23.57867 25.95089,14.9417 z m 66.70011,-6.89911 c 9.55831,-4.97318 14.42986,-15.77702 11.6945,-25.93534 -5.66081,-21.02268 -34.91279,-27.47671 -46.50866,-10.26147 -2.80926,4.17063 -3.25006,6.3143 -2.8004,13.61881 0.62295,10.11963 5.03803,17.1686 13.5786,21.67918 6.25742,3.30476 18.52979,3.76368 24.03596,0.89882 z"
     id="path4681"
     inkscape:connector-curvature="0" />
  <path
     style="fill:#ffffff;fill-opacity:1;stroke:none;stroke-width:7.55897093;stroke-linecap:round;stroke-linejoin:round;stroke-miterlimit:4;stroke-dasharray:none;stroke-dashoffset:0;stroke-opacity:1;paint-order:normal"
     d="m 525.79396,185.55174 c -5.6627,-2.02379 -7.4805,-11.22463 -3.66179,-18.53422 5.72976,-10.96763 18.67127,-16.38655 24.71081,-10.34701 6.94638,6.94638 0.0944,22.67018 -12.16476,27.91553 -4.84638,2.07362 -5.56552,2.15179 -8.88426,0.9657 z"
     id="path4683"
     inkscape:connector-curvature="0" />
  <path
     style="fill:#ffffff;fill-opacity:1;stroke:none;stroke-width:7.55897093;stroke-linecap:round;stroke-linejoin:round;stroke-miterlimit:4;stroke-dasharray:none;stroke-dashoffset:0;stroke-opacity:1;paint-order:normal"
     d="m 496.37832,232.91939 c -4.00502,-4.00502 -1.11703,-17.3244 4.87567,-22.48651 6.8131,-5.86881 11.81205,-3.34225 11.81205,5.97003 0,11.92088 -10.69654,22.50766 -16.68772,16.51648 z"
     id="path4685"
     inkscape:connector-curvature="0" />
  <path
     style="fill:#ffffff;fill-opacity:1;stroke:none;stroke-width:7.55897093;stroke-linecap:round;stroke-linejoin:round;stroke-miterlimit:4;stroke-dasharray:none;stroke-dashoffset:0;stroke-opacity:1;paint-order:normal"
     d="m 586.55125,174.86592 c -8.13386,-4.10167 -13.50609,-13.85965 -12.01277,-21.81971 2.13485,-11.37978 14.97108,-17.19732 26.59757,-12.05437 16.23108,7.17977 18.1778,28.74551 3.16122,35.01984 -6.70352,2.80091 -10.39176,2.56278 -17.74602,-1.14576 z"
     id="path4687"
     inkscape:connector-curvature="0" />
  <path
     style="fill:#ffffff;fill-opacity:1;stroke:none;stroke-width:7.55897093;stroke-linecap:round;stroke-linejoin:round;stroke-miterlimit:4;stroke-dasharray:none;stroke-dashoffset:0;stroke-opacity:1;paint-order:normal"
     d="m 594.421,617.86832 c 0.51775,-10.50054 1.79806,-25.13765 2.84514,-32.52692 2.74168,-19.34818 2.72591,-85.59207 -0.0268,-112.45372 -2.88846,-28.1866 -4.45692,-39.1458 -8.49739,-59.37322 -1.86445,-9.33381 -5.03501,-28.1075 -7.04569,-41.7193 C 572.14553,307.139 565.73295,271.05958 561.82173,259.97401 l -1.92164,-5.44651 9.72117,-9.00031 c 8.6944,-8.04968 24.17336,-17.98182 28.02417,-17.98182 1.87927,0 6.98549,21.78593 8.21864,35.06524 0.78118,8.41221 1.37627,10.23196 3.22391,9.8585 2.7928,-0.56449 2.47262,-12.07121 -0.75813,-27.24607 -4.25855,-20.00237 -4.25919,-19.9886 1.08152,-23.2368 11.76659,-7.15641 58.01743,-22.00488 65.57754,-21.05316 3.49616,0.44012 3.38081,0.72238 -5.61781,13.7476 -18.39582,26.62736 -30.37982,54.46315 -45.14139,104.85202 -5.13716,17.53579 -9.3403,32.6502 -9.3403,33.58757 0,0.93738 0.92727,1.70432 2.06059,1.70432 2.08787,0 3.30074,-3.53021 16.27693,-47.37615 11.26309,-38.05748 22.14984,-62.23217 40.49371,-89.91877 13.53259,-20.42488 13.23794,-20.24595 35.92108,-21.81326 11.5974,-0.80133 36.04664,0.93616 37.7965,2.68602 0.31827,0.31828 -4.7725,7.80114 -11.31286,16.62858 -26.21397,35.38074 -62.57829,88.82132 -72.44403,106.46292 -7.21998,12.91052 -19.53124,43.2083 -26.11846,64.27701 -12.00107,38.3845 -27.06945,108.1713 -29.67164,137.41948 -3.06733,34.47634 -4.51881,68.53128 -3.20294,75.14799 0.76529,3.84819 0.79356,7.15858 0.0673,7.88481 -0.68848,0.68848 -2.85633,7.24746 -4.81744,14.57552 -5.34443,19.97039 -6.61313,19.29653 -5.51718,-2.93042 z"
     id="path4689"
     inkscape:connector-curvature="0" />
  <path
     style="fill:#ffffff;fill-opacity:1;stroke:none;stroke-width:7.55897093;stroke-linecap:round;stroke-linejoin:round;stroke-miterlimit:4;stroke-dasharray:none;stroke-dashoffset:0;stroke-opacity:1;paint-order:normal"
     d="m 618.84287,621.66941 c -8.63801,-15.01873 -10.16149,-22.6406 -9.09876,-45.52039 2.77775,-59.80285 4.47671,-72.57562 17.27994,-129.91023 13.84315,-61.99158 29.22161,-103.97996 50.12486,-136.85782 13.51108,-21.25102 49.26559,-72.93137 63.95516,-92.4422 10.65275,-14.14907 12.09421,-15.52794 15.93436,-15.24234 5.84688,0.43485 22.35519,8.83017 33.86873,17.22399 l 9.62212,7.01489 -4.9303,2.06001 c -19.82056,8.28156 -71.81512,53.61124 -71.81512,62.60955 0,3.19348 3.71484,2.30338 6.19697,-1.48482 4.11174,-6.27531 19.7193,-22.17218 29.83944,-30.39257 14.05802,-11.41903 37.40514,-26.93946 40.52458,-26.93946 1.44923,0 2.63497,-0.66879 2.63497,-1.48619 0,-2.74011 10.2207,6.27322 19.29103,17.0122 9.72478,11.51381 25.92082,42.00435 32.3452,60.89277 2.69047,7.91033 7.76074,29.69143 7.76074,33.33899 0,0.30299 -2.81972,0.55088 -6.26603,0.55088 -8.44829,0 -46.1772,4.90882 -72.21126,9.39523 -44.00962,7.58412 -74.70202,23.45736 -106.13828,54.89174 -25.86819,25.86663 -42.21604,54.52596 -52.87261,92.69074 -7.04786,25.24077 -8.39984,34.17522 -9.52305,62.9325 -0.74699,19.12486 -0.50319,23.94088 1.57502,31.1127 1.35235,4.6669 3.08448,9.24642 3.84918,10.17672 3.30054,4.01527 6.96841,27.29994 4.30037,27.29994 -0.61215,0 -3.42341,-4.01708 -6.24726,-8.92683 z m 73.37659,-253.81087 c 21.62681,-23.83518 49.64581,-45.3679 76.6693,-58.92069 20.78741,-10.42528 50.90504,-19.16708 66.03527,-19.16708 3.88253,0 4.82534,-0.55264 4.82534,-2.82843 0,-3.44489 -1.37388,-3.49733 -17.84597,-0.68114 -30.85017,5.27435 -66.26447,20.81802 -91.93537,40.35127 -13.67968,10.40902 -43.81303,38.44515 -48.70491,45.31516 -2.66975,3.74932 -2.71213,6.9386 -0.0922,6.9386 0.58341,0 5.55526,-4.95346 11.04855,-11.00769 z"
     id="path4691"
     inkscape:connector-curvature="0" />
  <path
     style="fill:#ffffff;fill-opacity:1;stroke:none;stroke-width:7.55897093;stroke-linecap:round;stroke-linejoin:round;stroke-miterlimit:4;stroke-dasharray:none;stroke-dashoffset:0;stroke-opacity:1;paint-order:normal"
     d="m 644.57874,615.13275 c -21.90243,-6.66242 -27.56754,-22.64515 -23.59266,-66.5609 5.11348,-56.49524 25.91468,-104.39554 60.24172,-138.72258 25.93285,-25.93284 58.36199,-44.2977 89.50055,-50.6848 23.57112,-4.83488 89.64076,-13.89003 91.05172,-12.47906 0.95078,0.95078 -2.27107,55.04983 -3.65414,61.3577 -2.8326,12.91886 -2.62639,12.71488 -7.21997,7.14208 -6.61028,-8.01941 -20.0867,-16.07222 -34.96329,-20.89225 l -13.66996,-4.42907 -23.33452,0.86079 c -25.2662,0.93204 -36.22621,2.54848 -39.50396,5.82623 -2.67391,2.67391 0.0845,6.26898 3.02802,3.94645 2.97615,-2.34828 7.77801,-3.06019 31.831,-4.71919 21.67207,-1.49478 23.4204,-1.41995 33.88175,1.45008 16.63958,4.565 27.05894,10.13329 36.27044,19.38357 7.58488,7.61681 8.11932,8.57755 7.32409,13.16611 -1.77977,10.26956 -10.10541,25.00769 -19.34836,34.25063 -8.50548,8.50548 -27.5971,23.25599 -28.64932,22.13496 -0.27058,-0.28828 0.39486,-4.66073 1.47878,-9.71654 2.2957,-10.70802 1.45095,-21.3569 -2.55187,-32.16863 -4.15933,-11.23453 -20.93215,-28.36306 -20.93215,-21.37608 0,0.88528 2.60261,4.4331 5.78356,7.88403 12.85031,13.94094 16.76399,31.51541 11.19541,50.27324 l -3.17351,10.69 -12.48698,5.80169 c -12.01953,5.58452 -32.4475,12.83671 -41.93355,14.88693 l -4.55263,0.98397 5.65893,-12.07584 c 6.33256,-13.51333 11.24035,-30.88535 11.19344,-39.62122 -0.0629,-11.71663 -9.14246,-23.96441 -20.55833,-27.73199 -24.30086,-8.02 -66.39561,18.42946 -88.9552,55.89336 -6.83755,11.35489 -13.30052,28.55563 -16.47091,43.83619 -3.40779,16.42479 -3.64073,44.04664 -0.4504,53.40974 2.71053,7.95497 11.27775,17.96584 20.9485,24.47851 6.06541,4.08469 6.64102,4.82421 3.67515,4.72169 -1.93416,-0.0669 -5.11177,-0.60677 -7.06135,-1.1998 z"
     id="path4693"
     inkscape:connector-curvature="0" />
  <path
     style="fill:#ffffff;fill-opacity:1;stroke:none;stroke-width:7.55897093;stroke-linecap:round;stroke-linejoin:round;stroke-miterlimit:4;stroke-dasharray:none;stroke-dashoffset:0;stroke-opacity:1;paint-order:normal"
     d="m 635.64107,521.29445 c 11.7583,-39.71116 49.00923,-77.41875 82.73074,-83.74494 10.02231,-1.8802 22.63385,4.35569 27.38315,13.53983 4.91206,9.49888 0.34057,31.81293 -11.22097,54.77108 l -4.89661,9.72338 -17.42245,2.99621 c -20.90924,3.59583 -35.10012,5.22265 -35.10012,4.0238 0,-0.48265 2.2086,-3.77096 4.90799,-7.30736 4.55056,-5.96155 14.61091,-25.49559 16.91266,-32.83908 0.78461,-2.50321 0.4491,-3.17543 -1.5728,-3.15129 -1.86913,0.0223 -4.46163,4.07532 -9.50456,14.85893 -4.7268,10.10763 -9.22898,17.29595 -14.14213,22.57975 l -7.20776,7.75151 -12.72792,1.46962 c -7.00036,0.8083 -14.43652,1.74632 -16.52481,2.0845 l -3.79689,0.61488 z"
     id="path4695"
     inkscape:connector-curvature="0" />
  <path
     style="fill:#ffffff;fill-opacity:1;stroke:none;stroke-width:7.55897093;stroke-linecap:round;stroke-linejoin:round;stroke-miterlimit:4;stroke-dasharray:none;stroke-dashoffset:0;stroke-opacity:1;paint-order:normal"
     d="m 562.56351,638.28378 c 0,-0.49349 2.20192,-4.49336 4.89315,-8.88859 2.69122,-4.39524 5.47615,-10.64614 6.18873,-13.89089 0.71257,-3.24475 2.76022,-7.95646 4.55033,-10.47045 3.1903,-4.48034 3.24875,-5.20391 2.9511,-36.52685 -0.32806,-34.52277 -1.65383,-49.91574 -6.10192,-70.84684 -8.73786,-41.11712 -23.60732,-71.05537 -45.36684,-91.3419 -17.02612,-15.87353 -35.71889,-24.38547 -67.97702,-30.95399 -14.86889,-3.02766 -18.15177,-3.25067 -29.69849,-2.01746 -20.75997,2.2172 -34.09701,6.16471 -53.26913,15.76666 -21.72523,10.88062 -21.13228,10.65403 -17.69534,6.76219 8.47714,-9.59913 37.38573,-26.47821 75.27023,-43.94858 15.38205,-7.09341 30.6699,-14.46005 33.97299,-16.37032 l 6.00564,-3.47321 11.60838,5.1039 c 6.38461,2.80715 14.02534,7.28749 16.97941,9.95631 5.66538,5.11834 9.60552,6.2521 9.60552,2.76397 0,-3.22469 -12.47838,-12.33649 -23.04421,-16.82703 l -9.51379,-4.04341 6.14658,-3.89805 c 3.38062,-2.14392 12.86774,-9.34488 21.08251,-16.00213 l 14.93592,-12.10409 0.96487,6.43423 c 0.92472,6.16636 7.59702,31.57096 13.58145,51.7109 1.81909,6.12193 3.57591,9.54594 4.89794,9.54594 2.9583,0 2.63856,-2.3543 -2.83738,-20.89237 -6.01183,-20.35235 -12.06745,-45.17639 -12.06993,-49.47874 -10e-4,-1.99747 3.69379,-7.18168 9.85312,-13.82454 5.42023,-5.84572 11.59285,-12.90706 13.71693,-15.69187 l 3.86195,-5.06329 1.81811,5.25148 c 2.97306,8.58747 8.31548,38.24153 15.28642,84.85009 3.60633,24.11234 8.3881,53.06836 10.62613,64.34671 4.24114,21.37272 7.31529,45.37375 9.96257,77.78175 1.82425,22.33228 0.5936,77.35832 -2.18394,97.65101 -1.65323,12.07843 -2.60725,14.78983 -9.02984,25.66349 -3.94972,6.68702 -8.8551,14.1474 -10.90084,16.57863 -3.65026,4.33808 -9.07131,8.15519 -9.07131,6.38734 z"
     id="path4697"
     inkscape:connector-curvature="0" />
  <path
     style="fill:#ffffff;fill-opacity:1;stroke:none;stroke-width:7.55897093;stroke-linecap:round;stroke-linejoin:round;stroke-miterlimit:4;stroke-dasharray:none;stroke-dashoffset:0;stroke-opacity:1;paint-order:normal"
     d="m 543.09747,620.34319 c 5.90099,-5.63918 12.04455,-12.90504 13.65235,-16.14637 4.88723,-9.85262 6.24492,-23.94272 5.35989,-55.62497 -1.01452,-36.31754 -3.81699,-50.63419 -14.11845,-72.12489 -5.67716,-11.84358 -22.48328,-29.05632 -33.65817,-34.47251 -11.58559,-5.61525 -24.74346,-6.43175 -38.12888,-2.36605 -8.96793,2.72392 -11.42417,4.24909 -18.51729,11.49807 -10.66183,10.89609 -13.03004,18.35843 -12.27753,38.68707 0.47048,12.70959 1.05782,15.46066 5.01822,23.50485 2.46696,5.01078 6.88318,11.91157 9.81381,15.3351 l 5.32843,6.22459 -15.49633,-0.78421 c -18.00108,-0.91098 -34.30183,-4.06597 -46.74568,-9.04758 l -8.79993,-3.52287 -1.54212,-8.85549 c -2.03126,-11.66438 -1.92204,-16.73455 0.59001,-27.38923 2.62472,-11.13254 7.70298,-21.38397 15.69,-31.67327 6.11442,-7.87693 7.5259,-11.07959 4.88299,-11.07959 -2.63752,0 -14.7589,16.4568 -19.27051,26.16295 -5.89328,12.67861 -8.22307,25.40295 -7.05607,38.53732 0.50104,5.63917 0.49273,10.25304 -0.0185,10.25304 -0.51119,0 -5.26528,-2.88245 -10.56463,-6.40546 -10.4485,-6.94614 -27.34855,-24.17323 -31.54433,-32.15475 l -2.61538,-4.97515 7.34275,-14.29481 c 5.81623,-11.32301 9.15302,-15.93362 16.0504,-22.17767 10.28195,-9.30802 26.82206,-17.82446 42.64878,-21.95971 18.63526,-4.86906 51.8822,-3.75859 71.77134,2.39722 1.59233,0.49284 2.47487,0.0147 2.47487,-1.34096 0,-5.63776 -35.30235,-10.47884 -58.11167,-7.96896 -26.33385,2.89771 -45.47218,11.04902 -62.11106,26.45407 -7.82938,7.24881 -11.11887,11.67012 -16.12934,21.67901 l -6.29411,12.57311 -1.86246,-5.2579 c -1.05445,-2.97682 -1.8165,-10.77975 -1.75653,-17.98582 0.1251,-15.03009 3.90728,-26.55524 11.05091,-33.6746 7.29972,-7.27493 47.70743,-27.24705 62.49962,-30.89139 19.26556,-4.74643 40.58653,-4.49544 60.69383,0.71448 27.19414,7.04617 43.40496,15.39408 57.74952,29.73864 21.08129,21.08128 35.74033,53.90171 43.39961,97.16818 2.45279,13.85558 3.25811,25.15421 3.82161,53.61731 l 0.71393,36.06244 -6.27383,8.48528 c -3.45061,4.66691 -8.87917,10.28442 -12.06345,12.48337 -6.05256,4.17968 -20.83969,10.75981 -24.30966,10.81758 -1.10885,0.0185 2.812,-4.58029 8.713,-10.21947 z"
     id="path4699"
     inkscape:connector-curvature="0" />
  <path
     style="fill:#ffffff;fill-opacity:1;stroke:none;stroke-width:7.55897093;stroke-linecap:round;stroke-linejoin:round;stroke-miterlimit:4;stroke-dasharray:none;stroke-dashoffset:0;stroke-opacity:1;paint-order:normal"
     d="m 465.95149,527.50674 c -3.74521,-4.01203 -8.83638,-11.57329 -11.31371,-16.80282 -4.21696,-8.90177 -4.50354,-10.50043 -4.49321,-25.06457 0.0101,-14.26789 0.32156,-16.08607 3.76009,-21.95202 5.24062,-8.9402 10.62989,-14.00789 18.85629,-17.73111 10.29884,-4.66119 19.91722,-5.5406 30.62977,-2.80049 27.41314,7.01187 48.50359,38.51312 52.8242,78.89962 l 1.02124,9.54594 h -11.3139 -11.3139 l -4.95142,-5.48063 c -7.20072,-7.97034 -11.62391,-16.20009 -16.4366,-30.58182 -2.63813,-7.88351 -5.09286,-12.90195 -6.44942,-13.18517 -3.05757,-0.63834 -2.77306,1.73779 1.84333,15.39476 4.99203,14.76825 8.83386,22.40305 14.54817,28.91129 2.43219,2.77011 4.17432,5.2844 3.87141,5.58732 -0.30291,0.30291 -12.63823,1.00155 -27.41182,1.55252 l -26.86106,1.00178 z"
     id="path4701"
     inkscape:connector-curvature="0" />
  <g
     id="g4829"
     style="stroke:none">
    <path
       inkscape:connector-curvature="0"
       id="path4645"
       d="m 385.65833,931.83765 c -7.13506,-2.54972 -15.16214,-7.7075 -16.82197,-10.80892 -2.2176,-4.14363 -1.54208,-21.19998 1.1469,-28.95795 3.33475,-9.62111 13.95207,-24.11262 29.66223,-40.48579 15.49768,-16.15172 22.93957,-22.03707 42.39743,-33.52962 l 14.49881,-8.56355 2.1182,4.09615 c 1.16501,2.25287 2.11619,4.60504 2.11372,5.22703 -0.002,0.62199 -6.27451,4.52385 -13.93789,8.67081 -11.12682,6.02116 -17.64846,11.00627 -32.37691,24.74874 -10.14393,9.46484 -20.42336,19.52611 -22.84318,22.35837 -9.37706,10.97529 -13.2889,27.12449 -8.66527,35.77271 5.21098,9.74685 22.06075,12.00232 42.23277,5.65317 9.38672,-2.95447 13.02057,-4.99122 19.54683,-10.95586 13.26532,-12.12375 18.05961,-27.15562 11.88883,-37.27579 -1.50399,-2.46655 -5.64275,-6.18898 -9.19726,-8.27206 -5.94737,-3.48539 -7.47349,-3.74804 -19.13755,-3.29354 l -12.67481,0.49389 5.96745,-5.36109 5.96745,-5.3611 12.02082,0.6809 c 14.05563,0.79615 20.4459,2.6945 25.80532,7.66597 5.72865,5.31398 9.91874,17.48173 10.10237,29.33662 0.13453,8.68581 -0.35557,10.76346 -3.75233,15.90678 -7.33297,11.10344 -33.61248,27.10059 -52.60503,32.02231 -10.1516,2.63068 -26.42841,2.74346 -33.45693,0.23182 z"
       style="fill:#f7ffff;fill-opacity:1;stroke:none;stroke-width:5.34505939;stroke-linecap:round;stroke-linejoin:round;stroke-miterlimit:4;stroke-dasharray:none;stroke-dashoffset:0;stroke-opacity:1;paint-order:normal" />
    <path
       inkscape:connector-curvature="0"
       id="path4647"
       d="m 438.85782,1043.2137 c -15.1894,-2.9912 -19.32559,-4.1663 -25.45584,-7.2323 -3.88909,-1.9452 -7.27038,-3.7124 -7.51399,-3.9273 -0.2436,-0.2148 2.05306,-5.3885 5.1037,-11.4971 10.68277,-21.39109 15.68735,-41.73124 16.86638,-68.55017 l 0.78454,-17.8457 9.51255,-4.22661 9.51256,-4.2266 3.14142,13.58702 c 4.31621,18.66809 6.74876,42.31266 7.83597,76.16596 l 0.9197,28.6378 -8.93928,-0.164 c -4.91661,-0.09 -10.21208,-0.4147 -11.76771,-0.721 z"
       style="fill:#f7ffff;fill-opacity:1;stroke:none;stroke-width:5.34505939;stroke-linecap:round;stroke-linejoin:round;stroke-miterlimit:4;stroke-dasharray:none;stroke-dashoffset:0;stroke-opacity:1;paint-order:normal" />
    <path
       inkscape:connector-curvature="0"
       id="path4649"
       d="m 428.45039,904.19871 c -2.11671,-7.06495 -13.42189,-17.43481 -22.51277,-20.6502 -13.33113,-4.71514 -12.42575,-3.82705 -8.52489,-8.36206 3.43922,-3.99834 3.51377,-4.01331 11.14003,-2.23779 11.11029,2.58665 23.43199,9.47923 26.85927,15.02469 1.59444,2.57986 3.02202,7.2693 3.17239,10.42098 0.23839,4.99646 -0.28664,6.09012 -4.09966,8.53982 l -4.37306,2.8095 z"
       style="fill:#f7ffff;fill-opacity:1;stroke:none;stroke-width:5.34505939;stroke-linecap:round;stroke-linejoin:round;stroke-miterlimit:4;stroke-dasharray:none;stroke-dashoffset:0;stroke-opacity:1;paint-order:normal" />
    <path
       inkscape:connector-curvature="0"
       id="path4651"
       d="m 490.9062,829.83728 c -5.63445,-1.22462 -11.72979,-3.91941 -17.07365,-7.54835 -7.41376,-5.03459 -8.87281,-6.87316 -13.51702,-17.03304 -7.188,-15.72483 -8.73948,-23.75753 -6.68597,-34.6164 4.03122,-21.3169 8.11251,-28.57105 23.64251,-42.02254 9.77504,-8.46677 16.00539,-12.87433 42.90303,-30.3511 27.10949,-17.61442 56.09585,-51.3642 62.10343,-70.65301 1.83881,-5.90396 5.60205,-15.92661 5.60205,-13.19243 0,5.36401 -4.47749,39.1 -6.28034,48.96653 -2.43964,13.35151 -12.78022,38.9134 -22.67999,56.06488 -7.25788,12.57438 -14.60476,22.0901 -36.96761,47.8807 -14.55127,16.78167 -19.23889,21.37504 -33.26808,32.59938 l -6.7418,5.3939 -2.20181,-5.26965 c -1.24489,-2.97945 -1.64397,-5.6414 -0.91826,-6.125 5.89019,-3.92508 31.5449,-26.44793 34.17011,-29.99871 1.82804,-2.47256 10.91721,-13.34793 20.19816,-24.1675 17.18869,-20.03829 28.52728,-36.79155 35.6153,-56.43377 7.81908,-21.6681 10.79569,-29.71494 2.01174,-19.65588 -21.99829,25.19166 -24.254,27.20093 -48.93018,43.58428 -36.56137,24.27433 -44.11508,32.09263 -49.95623,51.7061 -5.68035,19.07358 -1.17833,42.49754 10.28712,53.52364 16.19048,15.57009 45.01735,10.45528 50.90573,-9.03232 2.15174,-7.12119 0.83883,-11.01732 -6.44109,-19.11434 l -6.25142,-6.95309 4.93862,-5.94544 c 2.71624,-3.27 5.79783,-5.94545 6.84797,-5.94545 2.58352,0 11.38414,10.94117 14.30687,17.7867 1.37747,3.22625 2.35258,9.1769 2.33021,14.22016 -0.0694,15.64182 -10.30141,28.75015 -25.80326,33.05675 -6.84472,1.90153 -21.59181,1.56894 -32.14614,-0.725 z"
       style="fill:#f7ffff;fill-opacity:1;stroke:none;stroke-width:5.34505939;stroke-linecap:round;stroke-linejoin:round;stroke-miterlimit:4;stroke-dasharray:none;stroke-dashoffset:0;stroke-opacity:1;paint-order:normal"
       sodipodi:nodetypes="sscsssssssscccccssssssssccscccs" />
    <path
       inkscape:connector-curvature="0"
       id="path4653"
       d="m 496.0611,766.23506 c -2.76216,-0.99432 -8.35356,-2.26604 -12.42533,-2.82605 -8.13578,-1.11896 -8.07539,-0.9248 -3.65147,-11.73971 1.52918,-3.73831 2.52414,-4.50732 5.13389,-3.96801 31.4816,6.50572 30.59754,5.9482 22.32899,14.08164 -6.27239,6.16989 -6.43623,6.23396 -11.38608,4.45213 z"
       style="fill:#f7ffff;fill-opacity:1;stroke:none;stroke-width:5.34505939;stroke-linecap:round;stroke-linejoin:round;stroke-miterlimit:4;stroke-dasharray:none;stroke-dashoffset:0;stroke-opacity:1;paint-order:normal" />
    <path
       inkscape:connector-curvature="0"
       id="path4655"
       d="m 522.05843,990.78171 c -16.41048,-5.84551 -24.44079,-16.666 -25.46213,-34.30909 -1.3065,-22.56901 7.7728,-39.55124 23.66119,-44.25668 7.92471,-2.34694 36.1451,-3.26576 37.29292,-1.2142 0.32638,0.58336 0.3006,3.39328 -0.0573,6.24426 l -0.65071,5.1836 -10.1123,-0.7514 c -18.4312,-1.36954 -27.43742,3.36374 -35.20778,18.50369 -5.37976,10.48202 -6.09874,21.55893 -1.86085,28.6693 9.59443,16.0977 35.38455,12.29475 44.97114,-6.63132 4.48341,-8.85123 6.08935,-20.43533 8.12981,-58.64275 1.96882,-36.86605 4.28002,-62.7373 6.47597,-72.49108 2.7714,-12.30981 6.99957,-19.99586 20.42036,-37.1206 29.27977,-37.36057 31.74006,-56.11861 15.39412,-117.3696 -6.87354,-25.75632 -5.6187,-40.25297 -5.15735,-44.18535 0.75567,-4.29857 3.05369,-13.52998 3.47226,-11.98155 -0.42546,11.38081 9.15892,61.89145 16.17222,68.89482 2.27898,4.278 11.21033,17.64232 19.84744,29.69849 20.37117,28.43525 25.7351,39.42335 25.83407,52.92156 0.069,9.40942 -0.45517,11.12749 -8.72331,28.5933 -9.61071,20.3019 -18.97217,49.88739 -21.70993,68.61105 -1.33879,9.156 -1.34651,17.65453 -0.0351,38.63964 0.92462,14.79611 2.0095,29.58611 2.41084,32.86667 l 0.72967,5.96466 -4.67598,-1.57365 c -8.98643,-3.0243 -8.63598,-1.18769 -7.77104,-40.72577 1.0788,-49.31414 2.65406,-56.47276 21.99353,-99.94714 5.48487,-12.32979 10.38201,-25.01546 10.88253,-28.19035 1.96,-12.43302 -8.35259,-37.25765 -24.46842,-58.90071 -8.1096,-10.89094 -11.14672,-13.49691 -13.26327,-11.38037 -0.61256,0.61257 -0.44731,9.60935 0.36724,19.99284 1.09463,13.95406 1.05406,20.59302 -0.15554,25.44911 -2.2175,8.90244 -17.03384,35.02983 -28.11252,49.57412 -17.72471,23.2693 -20.10027,32.59987 -20.73624,81.4467 -0.78634,60.39489 -3.8299,80.17838 -14.7844,96.10019 -9.36329,13.60909 -20.5087,17.51909 -35.11112,12.31761 z"
       style="fill:#f7ffff;fill-opacity:1;stroke:none;stroke-width:5.34505939;stroke-linecap:round;stroke-linejoin:round;stroke-miterlimit:4;stroke-dasharray:none;stroke-dashoffset:0;stroke-opacity:1;paint-order:normal"
       sodipodi:nodetypes="csccccscccsssscccssssccccsscsccsssscc" />
    <path
       inkscape:connector-curvature="0"
       id="path4657"
       d="m 659.65439,978.40973 c -10.56343,-4.3567 -9.4507,-3.71985 -48.08326,-27.5195 -10.88944,-6.70846 -23.44022,-14.37072 -27.89061,-17.02724 -7.11854,-4.24918 -8.09644,-5.37272 -8.13172,-9.34276 -0.0221,-2.482 0.6005,-4.90865 1.38348,-5.39256 1.46981,-0.90839 18.46597,8.80471 36.37915,20.79024 5.62406,3.76301 11.98802,7.50972 14.14213,8.32603 2.15411,0.8163 10.38596,4.66502 18.293,8.55271 26.94097,13.24617 46.96489,14.13257 58.5075,2.58997 6.86541,-6.86542 9.04791,-14.42682 7.86839,-27.26049 -1.0694,-11.63542 -3.21597,-17.12164 -9.49905,-24.27767 -8.65932,-9.86242 -21.76097,-13.15669 -33.55595,-8.43727 -6.9853,2.79496 -9.27649,7.40173 -7.3112,14.70023 1.93323,7.17948 6.94127,11.86562 15.70575,14.69623 7.9977,2.58297 16.13991,2.9345 24.26525,1.04761 4.639,-1.07728 5.3033,-0.90865 5.3033,1.34619 0,5.82794 -26.7209,4.91434 -37.45594,-1.28065 -10.10685,-5.83246 -16.88852,-20.33279 -13.15381,-28.125 4.1168,-8.58943 29.87412,-13.50101 41.60623,-7.93377 5.5954,2.6552 11.36749,9.21059 16.6403,18.89848 5.0151,9.21438 6.71857,32.56317 3.15787,43.28344 -2.9514,8.88584 -9.17682,16.4694 -17.54635,21.37427 -5.63477,3.30219 -8.32074,3.88031 -19.34132,4.16292 -10.86131,0.27854 -14.08183,-0.20136 -21.28314,-3.17141 z"
       style="fill:#f7ffff;fill-opacity:1;stroke:none;stroke-width:5.34505939;stroke-linecap:round;stroke-linejoin:round;stroke-miterlimit:4;stroke-dasharray:none;stroke-dashoffset:0;stroke-opacity:1;paint-order:normal" />
    <path
       inkscape:connector-curvature="0"
       id="path4659"
       d="m 563.89117,1058.6877 -5.25356,-0.9613 10.20331,-12.7279 c 7.4587,-9.3042 14.19763,-15.6962 25.05254,-23.7627 18.89813,-14.0434 24.84312,-19.8167 29.22299,-28.3786 2.953,-5.77262 3.44789,-8.4608 3.0598,-16.6202 -0.25464,-5.35356 -0.2007,-9.73232 0.11987,-9.73057 0.32058,0.002 3.31671,1.60533 6.65809,3.56351 7.31011,4.28401 8.36412,7.82058 8.21148,27.55238 -0.0918,11.86408 -0.71318,15.07058 -5.31437,27.42288 -2.86574,7.6933 -5.60944,17.3827 -6.0971,21.532 -0.60873,5.1793 -1.60267,7.7598 -3.17091,8.2324 -10.81206,3.2579 -52.11772,5.813 -62.69214,3.8781 z"
       style="fill:#f7ffff;fill-opacity:1;stroke:none;stroke-width:5.34505939;stroke-linecap:round;stroke-linejoin:round;stroke-miterlimit:4;stroke-dasharray:none;stroke-dashoffset:0;stroke-opacity:1;paint-order:normal" />
    <path
       inkscape:connector-curvature="0"
       id="path4661"
       d="m 711.94353,1036.8667 c 27.74138,-31.2935 39.60485,-52.26431 46.04697,-81.39625 2.9877,-13.51067 3.62708,-34.64493 1.30145,-43.01877 -0.80462,-2.89718 -3.53417,-7.98835 -6.06566,-11.31371 -4.82446,-6.33739 -10.8404,-8.87848 -10.8404,-4.57892 0,4.4383 -8.2888,19.72966 -13.34523,24.61961 -6.47462,6.26143 -7.00997,2.41873 -0.66915,-4.80307 10.88435,-12.3966 12.4226,-27.61563 4.65267,-46.03249 -16.00982,-37.94768 -14.69333,-32.95454 -23.86378,-90.50967 -5.91512,-37.12412 -15.79634,-63.02928 -29.12641,-76.35934 -3.5791,-3.5791 -13.44706,-11.18057 -21.92881,-16.89214 -26.28332,-17.69909 -30.64175,-23.08493 -42.22318,-52.17638 -2.89,-7.2594 -6.11646,-22.67842 -5.76552,-23.02935 0.87403,-0.87404 9.516,16.49095 15.8232,29.17676 8.23213,16.55747 21.09675,33.33984 43.36173,44.57267 l 18.13231,9.14786 27.77367,0.2494 27.77367,0.2494 1.67838,4.84788 1.67837,4.84788 -14.92388,0.91313 c -8.20814,0.50222 -17.84777,0.92287 -21.4214,0.93478 -10.42525,0.0348 -11.14835,1.18088 -6.82664,10.8205 5.69541,12.70372 11.81022,36.74631 16.66521,65.52538 6.94324,41.15762 11.93423,60.63921 19.38343,75.66042 1.92864,3.88909 10.44177,17.67463 18.91806,30.63454 8.47629,12.95991 16.93566,27.01005 18.79863,31.22253 6.0531,13.68714 10.97472,39.30408 11.77336,61.28008 0.95947,26.40197 0.30772,27.85197 -16.39012,36.46647 -15.50299,7.9981 -61.7489,26.3655 -66.38364,26.3655 -0.31303,0 2.39269,-3.3411 6.01271,-7.4247 z"
       style="fill:#f7ffff;fill-opacity:1;stroke:none;stroke-width:5.34505939;stroke-linecap:round;stroke-linejoin:round;stroke-miterlimit:4;stroke-dasharray:none;stroke-dashoffset:0;stroke-opacity:1;paint-order:normal"
       sodipodi:nodetypes="csssscsssssscsscccccsccscscscsc" />
    <path
       inkscape:connector-curvature="0"
       id="path4663"
       d="m 791.41997,872.63845 c -15.10904,-4.23547 -23.24065,-14.2217 -30.38793,-37.31863 -5.61607,-18.14873 -6.57331,-26.6956 -5.97684,-53.36507 0.31313,-14.00071 0.55383,-35.00178 0.5349,-46.66905 l -0.0344,-21.2132 -6.44347,-18.85019 c -3.54391,-10.36761 -7.84753,-20.34475 -9.56362,-22.17144 -3.49483,-3.72008 -11.13719,-5.28109 -38.1749,-7.79752 -27.44861,-2.55467 -40.98216,-7.175 -52.45762,-17.90895 -3.94762,-3.69253 -8.77727,-9.44352 -10.73256,-12.77997 -4.31874,-7.36938 -13.65526,-29.12944 -12.19931,-29.09955 1.10685,0.0227 2.94289,2.53648 5.48606,5.1607 3.01019,3.10612 5.00413,8.54502 7.35404,12.98774 8.56526,16.19334 23.63545,28.93859 43.2543,33.81119 13.9126,3.45537 48.49196,5.16868 75.86364,3.75883 32.92607,-1.69595 39.55708,-4.0471 83.00713,-29.43175 32.04392,-18.7209 40.81715,-22.00087 60.84712,-22.7484 14.74943,-0.55045 34.10539,1.98983 39.37586,5.16771 1.04077,0.62753 0.90108,2.99424 -0.45369,7.68768 -1.5125,5.23983 -2.4971,6.61951 -4.3321,6.07035 -1.3061,-0.39088 -7.96135,-1.43622 -14.78942,-2.32299 -22.5651,-2.93055 -38.8544,1.95372 -80.0745,24.00996 -36.88645,19.73738 -42.57216,21.68564 -70.05279,24.00429 -9.14716,0.77178 -14.26673,1.83121 -15.13345,3.13166 -1.72921,2.59456 -0.97474,7.69674 3.53201,23.88562 5.0436,18.11732 5.97174,35.44886 3.21868,60.10408 -2.11676,18.95682 -1.66743,37.05477 1.29913,52.3259 1.68569,8.67749 8.18395,27.13143 12.3509,35.07446 5.42703,10.34497 10.31485,14.46619 19.49114,16.43415 14.92434,3.20069 24.58512,-3.09056 29.58034,-19.26323 4.8779,-15.79274 3.2466,-30.13123 -4.59814,-40.41621 -7.08199,-9.28496 -25.73824,-16.31711 -35.86849,-13.52002 -5.64725,1.55928 -11.15168,9.01968 -12.61279,17.09466 -1.37416,7.59449 -3.11459,6.54483 -4.25278,-2.56488 -1.23738,-9.90368 1.58427,-16.77626 10.11692,-24.64138 7.01035,-6.46193 11.01863,-7.7842 19.9046,-6.56625 15.00971,2.05731 32.2283,17.14196 41.33687,36.21392 4.43527,9.28679 5.08155,11.98908 5.08137,21.24666 -2e-4,9.09702 -0.59324,11.67718 -4.16686,18.12859 -9.85189,17.78559 -31.16525,27.44242 -49.32933,22.35053 z"
       style="fill:#f7ffff;fill-opacity:1;stroke:none;stroke-width:5.34505939;stroke-linecap:round;stroke-linejoin:round;stroke-miterlimit:4;stroke-dasharray:none;stroke-dashoffset:0;stroke-opacity:1;paint-order:normal"
       sodipodi:nodetypes="cssscscssscsssssscccssscssssscsscccsscccc" />
    <path
       inkscape:connector-curvature="0"
       id="path4665"
       d="m 847.01322,964.37535 c -11.10257,-8.17971 -42.92027,-39.81443 -51.607,-51.31022 -8.49717,-11.24494 -20.34308,-32.73637 -22.71109,-41.20358 l -0.95962,-3.4313 4.77062,2.95412 c 3.06501,1.89794 6.7931,6.62526 10.42748,13.22229 6.44576,11.70018 19.04021,26.31645 29.58093,34.32965 14.69234,11.1693 33.76463,18.29277 62.03405,23.16963 l 14.11686,2.43535 -7.37428,6.60486 c -7.52866,6.74313 -21.42326,14.37152 -29.08556,15.96851 -3.27296,0.68215 -5.41459,0.0439 -9.19239,-2.73931 z"
       style="fill:#f7ffff;fill-opacity:1;stroke:none;stroke-width:5.34505939;stroke-linecap:round;stroke-linejoin:round;stroke-miterlimit:4;stroke-dasharray:none;stroke-dashoffset:0;stroke-opacity:1;paint-order:normal" />
    <path
       inkscape:connector-curvature="0"
       id="path4667"
       d="m 923.92077,878.94353 c -0.17615,-29.78961 0.008,-32.44912 2.28959,-33.04574 1.90094,-0.49711 3.22133,1.13694 5.64628,6.98758 1.74082,4.20003 6.53795,12.82146 10.6603,19.15874 l 7.49517,11.52231 -12.90463,13.89443 c -7.09754,7.64195 -12.92499,13.8911 -12.94989,13.88701 -0.0249,-0.004 -0.13146,-14.58604 -0.23682,-32.40433 z"
       style="fill:#f7ffff;fill-opacity:1;stroke:none;stroke-width:5.34505939;stroke-linecap:round;stroke-linejoin:round;stroke-miterlimit:4;stroke-dasharray:none;stroke-dashoffset:0;stroke-opacity:1;paint-order:normal" />
    <path
       inkscape:connector-curvature="0"
       id="path4669"
       d="m 886.2273,842.45516 c -8.33373,-2.77807 -18.51129,-11.51512 -22.49007,-19.30689 -1.76561,-3.45764 -3.25522,-9.65522 -3.65321,-15.19931 -1.41489,-19.70945 8.6548,-36.87083 30.55267,-52.06976 3.92066,-2.72126 5.28075,-3.00693 8.13173,-1.70793 4.38928,1.99989 4.3237,3.48929 -0.26168,5.94331 -6.50186,3.47969 -17.18719,16.52288 -20.25651,24.72637 -7.74188,20.69204 -0.87538,41.34114 16.26916,48.92499 8.13057,3.59653 14.68999,2.67774 27.76602,-3.88925 16.32311,-8.19771 23.25456,-17.80699 17.20699,-23.85455 -5.19111,-5.19112 -12.88038,1.12516 -13.60659,11.177 -0.22853,3.16335 -1.23924,5.82543 -2.35264,6.19656 -2.9351,0.97837 -1.13624,-11.82973 2.31741,-16.50021 6.40169,-8.65723 22.82115,-8.46921 27.02861,0.30949 1.68411,3.51381 1.62226,4.73028 -0.47723,9.38612 -2.82684,6.26881 -13.35703,16.93242 -20.74931,21.0122 -13.10208,7.23101 -32.17663,9.26835 -45.42535,4.85186 z"
       style="fill:#f7ffff;fill-opacity:1;stroke:none;stroke-width:5.34505939;stroke-linecap:round;stroke-linejoin:round;stroke-miterlimit:4;stroke-dasharray:none;stroke-dashoffset:0;stroke-opacity:1;paint-order:normal" />
    <path
       inkscape:connector-curvature="0"
       id="path4671"
       d="m 970.1894,800.69308 c -3.16887,-2.52791 -14.83258,-12.01664 -25.91934,-21.08608 -11.08675,-9.06944 -25.2489,-19.48835 -31.47144,-23.15314 -6.22254,-3.6648 -16.72308,-10.93164 -23.33452,-16.14856 -14.4194,-11.37795 -34.86014,-25.87987 -40.82837,-28.96617 -9.10893,-4.71041 -23.52302,-6.45902 -53.24282,-6.45902 h -28.83245 l -1.4728,-5.3033 c -0.81004,-2.91681 -1.47635,-5.7806 -1.48068,-6.36396 -0.004,-0.58336 27.19804,-1.04961 60.44974,-1.0361 46.18652,0.0188 62.62751,0.48859 69.65002,1.9904 36.10839,7.72201 49.26148,26.90338 32.07872,46.78091 l -4.73315,5.47544 -4.47054,-3.18331 c -4.33632,-3.08772 -4.40714,-3.30591 -2.35908,-7.26643 7.18074,-13.88604 -3.619,-26.65191 -26.94976,-31.85602 -10.80132,-2.40932 -26.2725,-2.23496 -27.11937,0.30563 -0.67794,2.03383 12.60226,13.09562 37.0517,30.86233 10.70384,7.77818 22.75491,16.77431 26.78017,19.9914 15.80285,12.63006 49.02449,31.6274 55.30849,31.6274 12.62743,0 22.18548,-26.5804 22.45498,-62.44609 l 0.1452,-19.31257 4.6046,-2.48143 c 2.5326,-1.36479 5.0121,-2.07398 5.5101,-1.57599 0.498,0.498 0.9068,12.85088 0.9085,27.45086 0,22.64005 -0.4379,28.16776 -2.9945,37.57276 -5.339,19.64052 -13.86311,32.92074 -23.8932,37.22455 -6.74193,2.89288 -9.47091,2.43745 -15.8402,-2.64351 z"
       style="fill:#f7ffff;fill-opacity:1;stroke:none;stroke-width:5.34505939;stroke-linecap:round;stroke-linejoin:round;stroke-miterlimit:4;stroke-dasharray:none;stroke-dashoffset:0;stroke-opacity:1;paint-order:normal" />
    <path
       inkscape:connector-curvature="0"
       id="path4673"
       d="m 970.57639,704.86505 c -9.43781,-1.93356 -20.33038,-8.24925 -28.29231,-16.40435 -11.81583,-12.10252 -23.1215,-38.08568 -23.1215,-53.13882 0,-5.22708 0.084,-5.30986 4.5962,-4.53025 7.8014,1.34793 8.13172,1.64963 8.13172,7.42709 0,6.54163 4.63841,22.30382 9.21257,31.30605 4.46047,8.77849 12.66691,16.66752 21.90013,21.05306 14.13304,6.71284 35.83424,3.93512 46.4499,-5.94551 6.0081,-5.59215 7.8615,-10.85874 7.8051,-22.17861 -0.063,-12.69242 -3.6283,-22.9705 -12.4297,-35.83642 -16.99402,-24.84173 -37.57345,-25.18996 -53.16057,-0.89954 -4.73602,7.38045 -7.04951,7.95268 -7.04951,1.74366 0,-10.23072 13.92832,-26.3811 26.42308,-30.63849 8.12056,-2.76695 20.18162,-2.90721 26.40465,-0.30706 16.59675,6.93457 27.38115,27.41375 28.79585,54.68216 1.0964,21.13408 -1.0757,27.98564 -12.251,38.64515 -13.2607,12.64851 -28.7832,18.01946 -43.41461,15.02188 z"
       style="fill:#f7ffff;fill-opacity:1;stroke:none;stroke-width:5.34505939;stroke-linecap:round;stroke-linejoin:round;stroke-miterlimit:4;stroke-dasharray:none;stroke-dashoffset:0;stroke-opacity:1;paint-order:normal" />
    <path
       inkscape:connector-curvature="0"
       id="path4677"
       d="m 1051.7543,646.19025 c -2.9457,-17.38491 -6.8195,-29.49537 -13.5712,-42.42641 -11.7986,-22.597 -28.1615,-39.23109 -40.39632,-41.06581 -12.90032,-1.93453 -34.38192,5.87135 -44.30938,16.10092 -3.02103,3.11296 -8.29786,10.66557 -11.72628,16.78356 l -6.23351,11.12363 -7.52852,-1.36459 c -7.45209,-1.35074 -7.51896,-1.40818 -6.58567,-5.65739 4.792,-21.81787 29.95077,-50.15061 54.89953,-61.82554 11.39083,-5.33042 21.43643,-6.42305 38.38825,-4.17539 14.776,1.95917 25.3563,5.90686 38.1215,14.22371 9.0411,5.8905 9.1855,6.08384 9.1855,12.30369 0,14.57122 -3.2105,61.95666 -5.4421,80.32277 l -2.4056,19.79899 z"
       style="fill:#f7ffff;fill-opacity:1;stroke:none;stroke-width:5.34505939;stroke-linecap:round;stroke-linejoin:round;stroke-miterlimit:4;stroke-dasharray:none;stroke-dashoffset:0;stroke-opacity:1;paint-order:normal" />
    <path
       style="fill:#f7ffff;fill-opacity:1;stroke:none;stroke-width:1.88976383;stroke-linecap:round;stroke-linejoin:round;stroke-miterlimit:4;stroke-dasharray:none;stroke-dashoffset:0;stroke-opacity:1;paint-order:normal"
       d="m 141.27662,805.7971 c -9.03518,-10.66193 -12.35891,-16.42999 -14.63282,-25.39399 -1.51456,-5.97058 -1.52509,-6.95158 -0.0796,-7.40871 0.61875,-0.19567 4.94727,-2.14288 9.61893,-4.32715 10.3743,-4.85056 14.03327,-6.10693 21.50608,-7.38447 5.42846,-0.92804 27.71362,-2.30898 30.94009,-1.91726 l 1.37767,0.16726 -2.80783,3.5 c -1.54431,1.925 -3.4801,4.66646 -4.30177,6.09213 -1.15932,2.01152 -1.90992,2.72695 -3.35105,3.19406 -8.43415,2.73371 -19.09169,11.0154 -25.05366,19.46852 -4.33678,6.14887 -6.18247,10.44842 -7.22082,16.82102 l -0.58264,3.57574 z"
       id="path4791"
       inkscape:connector-curvature="0" />
    <path
       style="fill:#f7ffff;fill-opacity:1;stroke:none;stroke-width:5.34505939;stroke-linecap:round;stroke-linejoin:round;stroke-miterlimit:4;stroke-dasharray:none;stroke-dashoffset:0;stroke-opacity:1;paint-order:normal"
       d="m 257.64218,860.04349 c -28.42932,-1.6506 -38.69457,-7.07934 -38.69457,-20.46346 0,-9.49988 4.30172,-16.20386 18.02083,-28.08441 29.2881,-25.3631 69.22439,-48.84225 99.3589,-58.4146 27.50209,-8.73615 33.7382,-9.50266 77.31096,-9.50266 21.90887,0 40.17542,0.34138 40.59232,0.75862 0.41689,0.41724 -0.21462,4.07652 -1.40338,8.13173 -2.50357,8.5405 0.0165,8.01495 -27.9106,5.82071 -49.58952,-3.89626 -96.75743,7.11755 -144.45074,33.72954 -49.92519,27.85735 -63.02499,47.19722 -37.95916,56.04096 24.76606,8.73798 63.41799,4.3734 87.89881,-9.92553 10.7393,-6.27268 14.67623,-17.40465 8.79815,-24.87742 -4.07216,-5.17691 -10.16019,-7.19599 -19.38985,-6.43059 -6.72471,0.55766 -8.53765,1.32138 -11.26943,4.74737 -5.45857,6.8457 -5.82068,16.96405 -1.01868,28.4648 0.64041,1.53378 -7.60879,6.07029 -11.03824,6.07029 -2.64243,0 -6.76725,-12.06096 -6.79815,-19.87779 -0.0246,-6.21694 0.71726,-8.87372 3.55396,-12.72792 8.25928,-11.22185 27.69261,-19.91636 39.54552,-17.69274 5.76901,1.08228 17.86502,11.29112 21.33967,18.01034 6.30279,12.18827 -3.33515,24.35293 -28.31311,35.73575 -6.11646,2.78736 -14.04931,6.07921 -17.62856,7.31521 -8.47013,2.92495 -30.73349,4.32203 -50.54465,3.1718 z"
       id="path4795"
       inkscape:connector-curvature="0" />
    <path
       style="fill:#f7ffff;fill-opacity:1;stroke:none;stroke-width:5.34505939;stroke-linecap:round;stroke-linejoin:round;stroke-miterlimit:4;stroke-dasharray:none;stroke-dashoffset:0;stroke-opacity:1;paint-order:normal"
       d="m 327.13495,871.03936 c -4.66691,-1.7635 -10.53918,-4.48298 -13.0495,-6.04329 l -4.56422,-2.83692 7.88769,-3.26926 c 8.61449,-3.57051 7.74058,-3.67729 25.77304,3.14915 l 8.97594,3.39797 -6.97843,4.47805 c -3.83814,2.46293 -7.55912,4.44489 -8.26884,4.40436 -0.70972,-0.0405 -5.10878,-1.51655 -9.77568,-3.28006 z"
       id="path4797"
       inkscape:connector-curvature="0" />
    <path
       style="fill:#f7ffff;fill-opacity:1;stroke:none;stroke-width:5.34505939;stroke-linecap:round;stroke-linejoin:round;stroke-miterlimit:4;stroke-dasharray:none;stroke-dashoffset:0;stroke-opacity:1;paint-order:normal"
       d="m 302.89454,977.87742 c -13.7831,-9.06311 -30.20681,-22.25127 -30.20681,-24.25593 0,-2.25718 15.67623,-24.41746 25.5917,-36.17701 20.10734,-23.84692 49.56915,-46.17622 75.60018,-57.2979 7.46949,-3.19131 13.87417,-5.50911 14.23262,-5.15066 1.52614,1.52614 -12.68529,15.90059 -19.55119,19.77547 -9.55612,5.39315 -34.32724,30.4411 -40.51338,40.96613 -2.60927,4.4394 -6.42239,12.06743 -8.47359,16.95118 -3.49374,8.31833 -3.73019,10.28735 -3.74114,31.15342 -0.006,12.25062 -0.10114,22.27386 -0.21047,22.27386 -0.10933,0 -5.8369,-3.70735 -12.72792,-8.23856 z"
       id="path4799"
       inkscape:connector-curvature="0" />
  </g>
  <text
     xml:space="preserve"
     style="font-style:normal;font-weight:normal;font-size:64px;line-height:1.25;font-family:sans-serif;letter-spacing:0px;word-spacing:0px;fill:#000000;fill-opacity:1;stroke:none"
     id="text4852"><textPath
       xlink:href="#path4575-7"
       id="textPath4893"><tspan
   id="tspan4850"><tspan
   style="font-style:normal;font-variant:normal;font-weight:normal;font-stretch:normal;font-family:'Century Schoolbook L';-inkscape-font-specification:'Century Schoolbook L'"
   id="tspan4904">Menschenvereeniging Wolbodo</tspan> </tspan></textPath></text>
  <path
     style="fill:none;fill-opacity:1;stroke:none;stroke-width:4.17835093;stroke-linecap:round;stroke-linejoin:round;stroke-miterlimit:4;stroke-dasharray:none;stroke-dashoffset:0;stroke-opacity:1;paint-order:normal"
     d="M 179.23671,224.02762 A 522.91071,522.91071 0 0 1 917.8782,188.25083 522.91071,522.91071 0 0 1 953.65505,926.89244 522.91071,522.91071 0 0 1 215.01348,962.6691 522.91071,522.91071 0 0 1 179.23671,224.02762 Z"
     id="path4575-7"
     inkscape:connector-curvature="0" />
</svg>
